%YAML 1.1
%TAG !u! tag:unity3d.com,2011:
--- !u!1045 &1
EditorBuildSettings:
  m_ObjectHideFlags: 0
  serializedVersion: 2
  m_Scenes:
  - enabled: 0
    path: Assets/TestScene.unity
  - enabled: 1
    path: Assets/Level1.unity
  - enabled: 1
    path: Assets/Level2.unity
  - enabled: 1
    path: Assets/Level3.unity
  - enabled: 1
    path: Assets/Level4.unity
